…
## Second exercise

*Compute a trimmed mean of life expectancy for different years. Or a
weighted mean, weighting by population. Just try something other than
the plain vanilla mean.*

``` r
gapminder %>% 
 group_by(continent, year) %>% 
 summarise(mean_lifeExp_weighted = weighted.mean(lifeExp, pop))
```

    ## # A tibble: 60 x 3
    ## # Groups:   continent [?]
    ##    continent  year mean_lifeExp_weighted
    ##    <fct>     <int>                 <dbl>
    ##  1 Africa     1952                  38.8
    ##  2 Africa     1957                  40.9
    ##  3 Africa     1962                  43.1
    ##  4 Africa     1967                  45.2
    ##  5 Africa     1972                  47.2
    ##  6 Africa     1977                  49.2
    ##  7 Africa     1982                  51.0
    ##  8 Africa     1987                  52.8
    ##  9 Africa     1992                  53.4
    ## 10 Africa     1997                  53.3
    ## # ... with 50 more rows
…
``` r
#Step 2: Determine which countries have a life expectancy below the median.
gapminder %>%
 group_by(year) %>% 
 mutate(median = median(lifeExp)) %>% 
 filter(lifeExp<median)
```

    ## # A tibble: 852 x 7
    ## # Groups:   year [12]
    ##    country     continent  year lifeExp      pop gdpPercap median
    ##    <fct>       <fct>     <int>   <dbl>    <int>     <dbl>  <dbl>
    ##  1 Afghanistan Asia       1952    28.8  8425333      779.   45.1
    ##  2 Afghanistan Asia       1957    30.3  9240934      821.   48.4
    ##  3 Afghanistan Asia       1962    32.0 10267083      853.   50.9
    ##  4 Afghanistan Asia       1967    34.0 11537966      836.   53.8
    ##  5 Afghanistan Asia       1972    36.1 13079460      740.   56.5
    ##  6 Afghanistan Asia       1977    38.4 14880372      786.   59.7
    ##  7 Afghanistan Asia       1982    39.9 12881816      978.   62.4
    ##  8 Afghanistan Asia       1987    40.8 13867957      852.   65.8
    ##  9 Afghanistan Asia       1992    41.7 16317921      649.   67.7
    ## 10 Afghanistan Asia       1997    41.8 22227415      635.   69.4
    ## # ... with 842 more rows

Just experimenting with a different approach to tabulate step
2:

``` r
#We can also use the `if_else` function to help us identify which countries are less than the benchmark median for each year. Let's identify those countries with low life expectancy with the word "lower".

gapminder %>%
 group_by(year) %>% 
 mutate(median = median(lifeExp)) %>%
 mutate (benchmark = if_else(lifeExp<median, "lower", "higher"))
```

    ## # A tibble: 1,704 x 8
    ## # Groups:   year [12]
    ##    country     continent  year lifeExp      pop gdpPercap median benchmark
    ##    <fct>       <fct>     <int>   <dbl>    <int>     <dbl>  <dbl> <chr>    
    ##  1 Afghanistan Asia       1952    28.8  8425333      779.   45.1 lower    
    ##  2 Afghanistan Asia       1957    30.3  9240934      821.   48.4 lower    
    ##  3 Afghanistan Asia       1962    32.0 10267083      853.   50.9 lower    
    ##  4 Afghanistan Asia       1967    34.0 11537966      836.   53.8 lower    
    ##  5 Afghanistan Asia       1972    36.1 13079460      740.   56.5 lower    
    ##  6 Afghanistan Asia       1977    38.4 14880372      786.   59.7 lower    
    ##  7 Afghanistan Asia       1982    39.9 12881816      978.   62.4 lower    
    ##  8 Afghanistan Asia       1987    40.8 13867957      852.   65.8 lower    
    ##  9 Afghanistan Asia       1992    41.7 16317921      649.   67.7 lower    
    ## 10 Afghanistan Asia       1997    41.8 22227415      635.   69.4 lower    
    ## # ... with 1,694 more rows
…
We see that Canada has been in the 95%. Can we compare the change in
life expectancy for these two countries?

``` r
gapminder %>% 
 group_by(country) %>% 
 mutate(change = lifeExp - lag(lifeExp)) %>% 
  filter(country == "Sierra Leone"| country =="Canada")
```

    ## # A tibble: 24 x 7
    ## # Groups:   country [2]
    ##    country continent  year lifeExp      pop gdpPercap change
    ##    <fct>   <fct>     <int>   <dbl>    <int>     <dbl>  <dbl>
    ##  1 Canada  Americas   1952    68.8 14785584    11367. NA    
    ##  2 Canada  Americas   1957    70.0 17010154    12490.  1.21 
    ##  3 Canada  Americas   1962    71.3 18985849    13462.  1.34 
    ##  4 Canada  Americas   1967    72.1 20819767    16077.  0.830
    ##  5 Canada  Americas   1972    72.9 22284500    18971.  0.75 
    ##  6 Canada  Americas   1977    74.2 23796400    22091.  1.33 
    ##  7 Canada  Americas   1982    75.8 25201900    22899.  1.55 
    ##  8 Canada  Americas   1987    76.9 26549700    26627.  1.10 
    ##  9 Canada  Americas   1992    78.0 28523502    26343.  1.09 
    ## 10 Canada  Americas   1997    78.6 30305843    28955.  0.660
    ## # ... with 14 more rows
…
